{
  "project_info": {
    "project_number": "386820501692",
    "firebase_url": "https://kikanguros.firebaseio.com",
    "project_id": "kikanguros",
    "storage_bucket": "kikanguros.appspot.com"
  },
  "client": [
    {
      "client_info": {
        "mobilesdk_app_id": "1:386820501692:android:c6677355bf15a096",
        "android_client_info": {
          "package_name": "com.srAlcantaraRD.kikanguros"
        }
      },
      "oauth_client": [
        {
          "client_id": "386820501692-rjtnpk4lmrngrihk4pce5nkf5si4htq1.apps.googleusercontent.com",
          "client_type": 1,
          "android_info": {
            "package_name": "com.srAlcantaraRD.kikanguros",
            "certificate_hash": "bd66a4afe58dd15fdce215f68ae26e2cfe751bb3"
          }
        },
        {
          "client_id": "386820501692-b5hbdr9l0q5ftqbj2lil73kolsboudlg.apps.googleusercontent.com",
          "client_type": 3
        }
      ],
      "api_key": [
        {
          "current_key": "AIzaSyDz6KXEUgxY5mbJeHQofeiZ6Bj8xpDcuXY"
        }
      ],
      "services": {
        "appinvite_service": {
          "other_platform_oauth_client": [
            {
              "client_id": "386820501692-b5hbdr9l0q5ftqbj2lil73kolsboudlg.apps.googleusercontent.com",
              "client_type": 3
            }
          ]
        }
      }
    }
  ],
  "configuration_version": "1"
}